{"page":1,"total_results":35,"total_pages":2,"results":[{"popularity":108.359258,"id":284053,"video":false,"vote_count":6985,"vote_average":7.5,"title":"Thor: Ragnarok","release_date":"2017-11-03","original_language":"en","original_title":"Thor: Ragnarok","genre_ids":[28,12,35,14,878],"backdrop_path":"\/kaIfm5ryEOwYg8mLbq8HkPuM1Fo.jpg","adult":false,"overview":"Thor is on the other side of the universe and finds himself in a race against time to get back to Asgard to stop Ragnarok, the prophecy of destruction to his homeworld and the end of Asgardian civilization, at the hands of an all-powerful new threat, the ruthless Hela.","poster_path":"\/rzRwTcFvttcN1ZpX2xv4j3tSdJu.jpg"},{"popularity":102.043596,"id":299536,"video":false,"vote_count":5150,"vote_average":8.4,"title":"Avengers: Infinity War","release_date":"2018-04-27","original_language":"en","original_title":"Avengers: Infinity War","genre_ids":[28,12,14,878],"backdrop_path":"\/bOGkgRGdhrBYJSLpXaxhXVstddV.jpg","adult":false,"overview":"As the Avengers and their allies have continued to protect the world from threats too large for any one hero to handle, a new danger has emerged from the cosmic shadows: Thanos. A despot of intergalactic infamy, his goal is to collect all six Infinity Stones, artifacts of unimaginable power, and use them to inflict his twisted will on all of reality. Everything the Avengers have fought for has led up to this moment - the fate of Earth and existence itself has never been more uncertain.","poster_path":"\/7WsyChQLEftFiDOVTGkv3hFpyyt.jpg"},{"popularity":78.710147,"id":284054,"video":false,"vote_count":6334,"vote_average":7.3,"title":"Black Panther","release_date":"2018-02-16","original_language":"en","original_title":"Black Panther","genre_ids":[28,12,14,878],"backdrop_path":"\/6ELJEzQJ3Y45HczvreC3dg0GV5R.jpg","adult":false,"overview":"King T'Challa returns home from America to the reclusive, technologically advanced African nation of Wakanda to serve as his country's new leader. However, T'Challa soon finds that he is challenged for the throne by factions within his own country as well as without. Using powers reserved to Wakandan kings, T'Challa assumes the Black Panther mantel to join with girlfriend Nakia, the queen-mother, his princess-kid sister, members of the Dora Milaje (the Wakandan 'special forces') and an American secret agent, to prevent Wakanda from being dragged into a world war.","poster_path":"\/uxzzxijgPIY7slzFvMotPv8wjKA.jpg"},{"popularity":52.596438,"id":118340,"video":false,"vote_count":13546,"vote_average":7.9,"title":"Guardians of the Galaxy","release_date":"2014-08-01","original_language":"en","original_title":"Guardians of the Galaxy","genre_ids":[28,12,878],"backdrop_path":"\/bHarw8xrmQeqf3t8HpuMY7zoK4x.jpg","adult":false,"overview":"Light years from Earth, 26 years after being abducted, Peter Quill finds himself the prime target of a manhunt after discovering an orb wanted by Ronan the Accuser.","poster_path":"\/y31QB9kn3XSudA15tV7UWQ9XLuW.jpg"},{"popularity":45.241879,"id":363088,"video":false,"vote_count":14,"vote_average":9,"title":"Ant-Man and the Wasp","release_date":"2018-07-06","original_language":"en","original_title":"Ant-Man and the Wasp","genre_ids":[28,12,35,14,878],"backdrop_path":"\/91zKb5etuYT1GIbnMX4vnGiJz9n.jpg","adult":false,"overview":"As Scott Lang balances being both a superhero and a father, Hope van Dyne and Dr. Hank Pym present an urgent new mission that finds the Ant-Man fighting alongside the Wasp to uncover secrets from their past.","poster_path":"\/rv1AWImgx386ULjcf62VYaW8zSt.jpg"},{"popularity":44.485648,"id":102899,"video":false,"vote_count":8284,"vote_average":7,"title":"Ant-Man","release_date":"2015-07-17","original_language":"en","original_title":"Ant-Man","genre_ids":[28,12,878],"backdrop_path":"\/kvXLZqY0Ngl1XSw7EaMQO0C1CCj.jpg","adult":false,"overview":"Armed with the astonishing ability to shrink in scale but increase in strength, master thief Scott Lang must embrace his inner-hero and help his mentor, Doctor Hank Pym, protect the secret behind his spectacular Ant-Man suit from a new generation of towering threats. Against seemingly insurmountable obstacles, Pym and Lang must plan and pull off a heist that will save the world.","poster_path":"\/D6e8RJf2qUstnfkTslTXNTUAlT.jpg"},{"popularity":41.437698,"vote_count":7234,"video":false,"poster_path":"\/bnX5PqAdQZRXSw3aX3DutDcdso5.jpg","id":76338,"adult":false,"backdrop_path":"\/3FweBee0xZoY77uO1bhUOlQorNH.jpg","original_language":"en","original_title":"Thor: The Dark World","genre_ids":[28,12,14],"title":"Thor: The Dark World","vote_average":6.7,"overview":"Thor fights to restore order across the cosmos… but an ancient race led by the vengeful Malekith returns to plunge the universe back into darkness. Faced with an enemy that even Odin and Asgard cannot withstand, Thor must embark on his most perilous and personal journey yet, one that will reunite him with Jane Foster and force him to sacrifice everything to save us all.","release_date":"2013-11-08"},{"popularity":40.77867,"id":10195,"video":false,"vote_count":9388,"vote_average":6.7,"title":"Thor","release_date":"2011-05-06","original_language":"en","original_title":"Thor","genre_ids":[28,12,14],"backdrop_path":"\/LvmmDZxkTDqp0DX7mUo621ahdX.jpg","adult":false,"overview":"Against his father Odin's will, The Mighty Thor - a powerful but arrogant warrior god - recklessly reignites an ancient war. Thor is cast down to Earth and forced to live among humans as punishment. Once here, Thor learns what it takes to be a true hero when the most dangerous villain of his world sends the darkest forces of Asgard to invade Earth.","poster_path":"\/bIuOWTtyFPjsFDevqvF3QrD1aun.jpg"},{"popularity":40.645177,"id":24428,"video":false,"vote_count":15104,"vote_average":7.5,"title":"The Avengers","release_date":"2012-05-04","original_language":"en","original_title":"The Avengers","genre_ids":[28,12,878],"backdrop_path":"\/hbn46fQaRmlpBuUrEiFqv0GDL6Y.jpg","adult":false,"overview":"When an unexpected enemy emerges and threatens global safety and security, Nick Fury, director of the international peacekeeping agency known as S.H.I.E.L.D., finds himself in need of a team to pull the world back from the brink of disaster. Spanning the globe, a daring recruitment effort begins!","poster_path":"\/cezWGskPY5x7GaglTTRN4Fugfb8.jpg"},{"popularity":38.88827,"id":315635,"video":false,"vote_count":7717,"vote_average":7.3,"title":"Spider-Man: Homecoming","release_date":"2017-07-07","original_language":"en","original_title":"Spider-Man: Homecoming","genre_ids":[28,12,35,18,878],"backdrop_path":"\/vc8bCGjdVp0UbMNLzHnHSLRbBWQ.jpg","adult":false,"overview":"Following the events of Captain America: Civil War, Peter Parker, with the help of his mentor Tony Stark, tries to balance his life as an ordinary high school student in Queens, New York City, with fighting crime as his superhero alter ego Spider-Man as a new threat, the Vulture, emerges.","poster_path":"\/c24sv2weTHPsmDa7jEMN0m2P3RT.jpg"},{"popularity":38.794719,"id":283995,"video":false,"vote_count":8561,"vote_average":7.6,"title":"Guardians of the Galaxy Vol. 2","release_date":"2017-05-05","original_language":"en","original_title":"Guardians of the Galaxy Vol. 2","genre_ids":[28,12,35,878],"backdrop_path":"\/aJn9XeesqsrSLKcHfHP4u5985hn.jpg","adult":false,"overview":"The Guardians must fight to keep their newfound family together as they unravel the mysteries of Peter Quill's true parentage.","poster_path":"\/y4MBh0EjBlMuOzv9axM4qJlmhzz.jpg"},{"popularity":29.804283,"id":271110,"video":false,"vote_count":10363,"vote_average":7.2,"title":"Captain America: Civil War","release_date":"2016-05-06","original_language":"en","original_title":"Captain America: Civil War","genre_ids":[28,12,878],"backdrop_path":"\/m5O3SZvQ6EgD5XXXLPIP1wLppeW.jpg","adult":false,"overview":"Following the events of Age of Ultron, the collective governments of the world pass an act designed to regulate all superhuman activity. This polarizes opinion amongst the Avengers, causing two factions to side with Iron Man or Captain America, which causes an epic battle between former allies.","poster_path":"\/kSBXou5Ac7vEqKd97wotJumyJvU.jpg"},{"popularity":29.002656,"id":284052,"video":false,"vote_count":8869,"vote_average":7.2,"title":"Doctor Strange","release_date":"2016-11-04","original_language":"en","original_title":"Doctor Strange","genre_ids":[28,12,14,878],"backdrop_path":"\/tFI8VLMgSTTU38i8TIsklfqS9Nl.jpg","adult":false,"overview":"After his career is destroyed, a brilliant but arrogant surgeon gets a new lease on life when a sorcerer takes him under her wing and trains him to defend the world against evil.","poster_path":"\/4PiiNGXj1KENTmCBHeN6Mskj2Fq.jpg"},{"popularity":28.825686,"id":99861,"video":false,"vote_count":9581,"vote_average":7.3,"title":"Avengers: Age of Ultron","release_date":"2015-05-01","original_language":"en","original_title":"Avengers: Age of Ultron","genre_ids":[28,12,878],"backdrop_path":"\/rFtsE7Lhlc2jRWF7SRAU0fvrveQ.jpg","adult":false,"overview":"When Tony Stark tries to jumpstart a dormant peacekeeping program, things go awry and Earth’s Mightiest Heroes are put to the ultimate test as the fate of the planet hangs in the balance. As the villainous Ultron emerges, it is up to The Avengers to stop him from enacting his terrible plans, and soon uneasy alliances and unexpected action pave the way for an epic and unique global adventure.","poster_path":"\/t90Y3G8UGQp0f0DrP60wRu9gfrH.jpg"},{"popularity":27.867369,"id":1726,"video":false,"vote_count":11734,"vote_average":7.5,"title":"Iron Man","release_date":"2008-05-02","original_language":"en","original_title":"Iron Man","genre_ids":[28,12,878],"backdrop_path":"\/ZQixhAZx6fH1VNafFXsqa1B8QI.jpg","adult":false,"overview":"After being held captive in an Afghan cave, billionaire engineer Tony Stark creates a unique weaponized suit of armor to fight evil.","poster_path":"\/848chlIWVT41VtAAgyh9bWymAYb.jpg"},{"popularity":21.786425,"id":68721,"video":false,"vote_count":11106,"vote_average":6.8,"title":"Iron Man 3","release_date":"2013-05-03","original_language":"en","original_title":"Iron Man 3","genre_ids":[28,12,878],"backdrop_path":"\/n9X2DKItL3V0yq1q1jrk8z5UAki.jpg","adult":false,"overview":"When Tony Stark's world is torn apart by a formidable terrorist called the Mandarin, he starts an odyssey of rebuilding and retribution.","poster_path":"\/1Ilv6ryHUv6rt9zIsbSEJUmmbEi.jpg"},{"popularity":21.019747,"id":1771,"video":false,"vote_count":9488,"vote_average":6.7,"title":"Captain America: The First Avenger","release_date":"2011-07-22","original_language":"en","original_title":"Captain America: The First Avenger","genre_ids":[28,12,878],"backdrop_path":"\/pmZtj1FKvQqISS6iQbkiLg5TAsr.jpg","adult":false,"overview":"Predominantly set during World War II, Steve Rogers is a sickly man from Brooklyn who's transformed into super-soldier Captain America to aid in the war effort. Rogers must stop the Red Skull – Adolf Hitler's ruthless head of weaponry, and the leader of an organization that intends to use a mysterious device of untold powers for world domination.","poster_path":"\/vSNxAJTlD0r02V9sPYpOjqDZXUK.jpg"},{"popularity":19.5316,"id":10138,"video":false,"vote_count":9129,"vote_average":6.7,"title":"Iron Man 2","release_date":"2010-05-07","original_language":"en","original_title":"Iron Man 2","genre_ids":[28,12,878],"backdrop_path":"\/jxdSxqAFrdioKgXwgTs5Qfbazjq.jpg","adult":false,"overview":"With the world now aware of his dual life as the armored superhero Iron Man, billionaire inventor Tony Stark faces pressure from the government, the press and the public to share his technology with the military. Unwilling to let go of his invention, Stark, with Pepper Potts and James 'Rhodey' Rhodes at his side, must forge new alliances – and confront powerful enemies.","poster_path":"\/ArqpkNYGfcTIA6umWt6xihfIZZv.jpg"},{"popularity":17.87266,"id":100402,"video":false,"vote_count":7959,"vote_average":7.6,"title":"Captain America: The Winter Soldier","release_date":"2014-04-04","original_language":"en","original_title":"Captain America: The Winter Soldier","genre_ids":[28,12,878],"backdrop_path":"\/4qfXT9BtxeFuamR4F49m2mpKQI1.jpg","adult":false,"overview":"After the cataclysmic events in New York with The Avengers, Steve Rogers, aka Captain America is living quietly in Washington, D.C. and trying to adjust to the modern world. But when a S.H.I.E.L.D. colleague comes under attack, Steve becomes embroiled in a web of intrigue that threatens to put the world at risk. Joining forces with the Black Widow, Captain America struggles to expose the ever-widening conspiracy while fighting off professional assassins sent to silence him at every turn. When the full scope of the villainous plot is revealed, Captain America and the Black Widow enlist the help of a new ally, the Falcon. However, they soon find themselves up against an unexpected and formidable enemy—the Winter Soldier.","poster_path":"\/5TQ6YDmymBpnF005OyoB7ohZps9.jpg"},{"popularity":16.885101,"id":1724,"video":false,"vote_count":4352,"vote_average":6.1,"title":"The Incredible Hulk","release_date":"2008-06-12","original_language":"en","original_title":"The Incredible Hulk","genre_ids":[28,12,878],"backdrop_path":"\/cVpBJxRBIwTjajKQ08TE6BINTEu.jpg","adult":false,"overview":"Scientist Bruce Banner scours the planet for an antidote to the unbridled force of rage within him: the Hulk. But when the military masterminds who dream of exploiting his powers force him back to civilization, he finds himself coming face to face with a new, deadly foe.","poster_path":"\/qTghl3lO8PhmIxkf8eN5WQQefHI.jpg"}]}